Proyecto/src/build/tb_bin_to_bcd.vcd
$date
	Sun Jun 07 17:42:30 2026
$end
$version
	Icarus Verilog
$end
$timescale
	1ps
$end
$scope module tb_bin_to_bcd $end
$var wire 4 ! unidad [3:0] $end
$var wire 4 " millar [3:0] $end
$var wire 4 # decena [3:0] $end
$var wire 4 $ centena [3:0] $end
$var reg 11 % binario [10:0] $end
$var reg 1 & clk $end
$var reg 1 ' reset $end
$scope module dut $end
$var wire 11 ( binario [10:0] $end
$var wire 1 & clk $end
$var wire 1 ' reset $end
$var reg 11 ) bin_reg [10:0] $end
$var reg 4 * centena [3:0] $end
$var reg 4 + centena_work [3:0] $end
$var reg 4 , decena [3:0] $end
$var reg 4 - decena_work [3:0] $end
$var reg 4 . millar [3:0] $end
$var reg 4 / millar_work [3:0] $end
$var reg 3 0 state [2:0] $end
$var reg 11 1 temp [10:0] $end
$var reg 4 2 unidad [3:0] $end
$var reg 4 3 unidad_work [3:0] $end
$upscope $end
$scope task esperar_conversion $end
$upscope $end
$scope task probar $end
$upscope $end
$upscope $end
$enddefinitions $end
$comment Show the parameter values. $end
$dumpall
$end
#0
$dumpvars
b0 3
b0 2
b0 1
b0 0
b0 /
b0 .
b0 -
b0 ,
b0 +
b0 *
b11111111111 )
b0 (
1'
0&
b0 %
b0 $
b0 #
b0 "
b0 !
$end
#5000
1&
#10000
0&
#15000
1&
#20000
0&
#25000
b1 0
0'
1&
#30000
0&
#35000
b10 0
1&
#40000
0&
#45000
b11 0
b1 %
b1 (
1&
#50000
0&
#55000
b100 0
1&
#60000
0&
#65000
b101 0
1&
#70000
0&
#75000
b110 0
1&
#80000
0&
#85000
b0 0
b1 )
1&
