Proyecto/src/build/tb_debounce.vcd
$date
	Sun Jun 07 17:39:10 2026
$end
$version
	Icarus Verilog
$end
$timescale
	1ps
$end
$scope module tb_debounce $end
$var wire 4 ! seleccion [3:0] $end
$var wire 1 " limpio $end
$var reg 1 # clk $end
$var reg 1 $ rst $end
$var reg 4 % tecla [3:0] $end
$var reg 1 & valido $end
$scope module dut $end
$var wire 1 # clk $end
$var wire 1 $ rst $end
$var wire 4 ' tecla [3:0] $end
$var wire 1 & valido $end
$var wire 5 ( muestra_actual [4:0] $end
$var parameter 32 ) N $end
$var reg 1 * armado $end
$var reg 4 + contador [3:0] $end
$var reg 1 , estable $end
$var reg 1 " limpio $end
$var reg 5 - muestra_anterior [4:0] $end
$var reg 4 . seleccion [3:0] $end
$var reg 4 / tecla_s1 [3:0] $end
$var reg 4 0 tecla_s2 [3:0] $end
$var reg 1 1 valido_s1 $end
$var reg 1 2 valido_s2 $end
$upscope $end
$scope task esperar_pulso $end
$upscope $end
$scope task rebote_presion $end
$upscope $end
$scope task soltar_y_rearmar $end
$upscope $end
$upscope $end
$enddefinitions $end
$comment Show the parameter values. $end
$dumpall
b100 )
$end
#0
$dumpvars
02
01
b0 0
b0 /
b0 .
b0 -
0,
b0 +
1*
b0 (
b0 '
0&
b0 %
1$
0#
0"
b0 !
$end
#5000
1#
#10000
0#
#15000
1#
#20000
0#
#25000
b1 +
b1001 /
11
1&
b1001 %
b1001 '
0$
1#
#30000
0#
#35000
b1001 0
b11001 (
12
b10 +
1#
#40000
0#
#45000
b0 +
b11001 -
01
0&
1#
#50000
0#
#55000
b1001 (
02
11
b1 +
1&
1#
#60000
0#
#65000
b0 +
b1001 -
b0 /
b11001 (
12
b0 %
b0 '
1#
#70000
0#
#75000
b10000 (
b0 0
b1001 /
b11001 -
b1001 %
b1001 '
1#
#80000
0#
#85000
b10000 -
b11001 (
b1001 0
1#
#90000
0#
#95000
b11001 -
1#
#100000
0#
#105000
b1 +
1#
#110000
0#
#115000
b10 +
1#
#120000
0#
#125000
b11 +
1#
#130000
0#
#135000
b100 +
1#
#140000
0#
#145000
b101 +
1#
#150000
0#
#155000
b110 +
1#
#160000
0#
#165000
b111 +
1#
#170000
0#
#175000
b1000 +
1#
#180000
0#
#185000
1,
1#
#190000
0#
#195000
0*
1"
b1001 !
b1001 .
1#
#200000
0#
#205000
0"
1#
